<?xml version="1.0" encoding="UTF-8"?>
<!DOCTYPE svg PUBLIC "-//W3C//DTD SVG 1.1//EN" "http://www.w3.org/Graphics/SVG/1.1/DTD/svg11.dtd">
<!-- Creator: CorelDRAW 2018 (64-Bit) -->
<svg xmlns="http://www.w3.org/2000/svg" xml:space="preserve" width="1.2in" height="1.2in" version="1.1" style="shape-rendering:geometricPrecision; text-rendering:geometricPrecision; image-rendering:optimizeQuality; fill-rule:evenodd; clip-rule:evenodd"
viewBox="0 0 1200 1200"
 xmlns:xlink="http://www.w3.org/1999/xlink">
 <defs>
  <style type="text/css">
   <![CDATA[
    .fil1 {fill:#FEFEFE;fill-rule:nonzero}
    .fil0 {fill:#DBA1AD;fill-rule:nonzero}
   ]]>
  </style>
 </defs>
 <g id="Слой_x0020_1">
  <metadata id="CorelCorpID_0Corel-Layer"/>
  <g id="_2296611139232">
   <g>
    <path class="fil0" d="M1184.35 605.14c0,326.24 -264.48,590.73 -590.73,590.73 -326.24,0 -590.73,-264.48 -590.73,-590.73 0,-326.28 264.48,-590.76 590.73,-590.76 326.24,0 590.73,264.48 590.73,590.76z"/>
   </g>
   <g>
    <path class="fil1" d="M299.85 652.47c-13.69,-15.68 -12.07,-39.49 3.61,-53.17 15.68,-13.69 39.49,-12.07 53.17,3.61l-56.79 49.56zm197.91 226.77l-197.91 -226.77 56.79 -49.56 197.91 226.77 1.79 47.34 -58.58 2.22zm56.79 -49.56c13.69,15.68 12.07,39.49 -3.61,53.17 -15.68,13.69 -39.49,12.07 -53.17,-3.61l56.79 -49.56zm314.34 -370.83l-312.55 418.18 -60.37 -45.13 312.55 -418.18 60.37 45.13zm-60.37 -45.13c12.46,-16.67 36.08,-20.08 52.75,-7.62 16.67,12.46 20.08,36.08 7.62,52.75l-60.37 -45.13z"/>
   </g>
  </g>
 </g>
</svg>
